{
  "data":[
    {
      "title": "#1 Natural Language Processing",
      "tags": ["NLTK", "Python", "Graph DB", "OrientDB", "Elasticsearch"]
    },
    {
      "title": "#2 RESTful Web Application Development",
      "tags": ["Django", "Flask", "RESTful WebSerives", "AngularJS"]
    },
    {
      "title": "#3 Knowledge Graph",
      "tags": ["Python", "OrientDB", "AngularJS", "RESTful WebSerives"]
    },
    {
      "title": "#4 Computational Genetics",
      "tags": ["Python", "Pandas"]
    }
  ]
}
